<?xml version="1.0" encoding="UTF-8" standalone="no"?>
<!-- Created with Inkscape (http://www.inkscape.org/) -->

<svg
   xmlns:dc="http://purl.org/dc/elements/1.1/"
   xmlns:cc="http://creativecommons.org/ns#"
   xmlns:rdf="http://www.w3.org/1999/02/22-rdf-syntax-ns#"
   xmlns:svg="http://www.w3.org/2000/svg"
   xmlns="http://www.w3.org/2000/svg"
   xmlns:xlink="http://www.w3.org/1999/xlink"
   xmlns:sodipodi="http://sodipodi.sourceforge.net/DTD/sodipodi-0.dtd"
   xmlns:inkscape="http://www.inkscape.org/namespaces/inkscape"
   width="200mm"
   height="200mm"
   viewBox="0 0 200 200"
   version="1.1"
   id="svg3719"
   inkscape:version="0.92.5 (2060ec1f9f, 2020-04-08)"
   sodipodi:docname="Zeichnung.svg">
  <defs
     id="defs3713">
    <radialGradient
       r="117.14"
       gradientTransform="matrix(-2.7744,0,0,1.9697,112.76,-872.89)"
       cx="605.71"
       cy="486.65"
       gradientUnits="userSpaceOnUse"
       xlink:href="#linearGradient5060"
       id="radialGradient5031" />
    <linearGradient
       id="linearGradient5060">
      <stop
         offset="0"
         id="stop5062" />
      <stop
         offset="1"
         stop-opacity="0"
         id="stop5064" />
    </linearGradient>
    <radialGradient
       r="117.14"
       gradientTransform="matrix(2.7744,0,0,1.9697,-1891.6,-872.89)"
       cx="605.71"
       cy="486.65"
       gradientUnits="userSpaceOnUse"
       xlink:href="#linearGradient5060"
       id="radialGradient5029" />
    <linearGradient
       y2="609.51"
       x2="302.86"
       gradientTransform="matrix(2.7744,0,0,1.9697,-1892.2,-872.89)"
       y1="366.65"
       gradientUnits="userSpaceOnUse"
       x1="302.86"
       id="linearGradient5027">
      <stop
         offset="0"
         stop-opacity="0"
         id="stop5050" />
      <stop
         offset=".5"
         id="stop5056" />
      <stop
         offset="1"
         stop-opacity="0"
         id="stop5052" />
    </linearGradient>
    <linearGradient
       id="linearGradient15234">
      <stop
         offset="0"
         stop-color="#97978a"
         id="stop15236" />
      <stop
         offset=".5"
         stop-color="#c2c2b9"
         id="stop15242" />
      <stop
         offset="1"
         stop-color="#7d7d6f"
         id="stop15238" />
    </linearGradient>
    <linearGradient
       x1="6.1072"
       x2="33.857"
       y1="10.451"
       gradientUnits="userSpaceOnUse"
       y2="37.88"
       id="linearGradient14490">
      <stop
         offset="0"
         stop-color="#c68827"
         id="stop14486" />
      <stop
         offset="1"
         stop-color="#89601f"
         id="stop14488" />
    </linearGradient>
    <linearGradient
       y2="39.498"
       x2="35.785"
       gradientTransform="matrix(1.0657,0,0,0.9876,-1.5644,0.074873)"
       y1="18.992"
       gradientUnits="userSpaceOnUse"
       x1="22.308"
       id="linearGradient15224">
      <stop
         offset="0"
         stop-color="#f0f0ef"
         id="stop15220" />
      <stop
         offset=".59929"
         stop-color="#e8e8e8"
         id="stop2269" />
      <stop
         offset=".82759"
         stop-color="#fff"
         id="stop2267" />
      <stop
         offset="1"
         stop-color="#d8d8d3"
         id="stop15222" />
    </linearGradient>
    <linearGradient
       y2="9.3234"
       x2="25.464"
       gradientTransform="matrix(1.0526,0,0,1,-1.7895,0)"
       y1="3.818"
       gradientUnits="userSpaceOnUse"
       xlink:href="#linearGradient15234"
       x1="25.405"
       id="linearGradient15240" />
    <linearGradient
       x1="36.812"
       x2="39.062"
       y1="39.156"
       gradientUnits="userSpaceOnUse"
       y2="42.062"
       id="linearGradient2222">
      <stop
         offset="0"
         id="stop2218" />
      <stop
         offset="1"
         stop-opacity="0"
         id="stop2220" />
    </linearGradient>
    <linearGradient
       x1="35.997"
       x2="33.665"
       y1="40.458"
       gradientUnits="userSpaceOnUse"
       y2="37.771"
       id="linearGradient2230">
      <stop
         offset="0"
         stop-color="#7c7c7c"
         id="stop2226" />
      <stop
         offset="1"
         stop-color="#b8b8b8"
         id="stop2228" />
    </linearGradient>
    <linearGradient
       x1="25.683"
       x2="25.692"
       y1="12.172"
       gradientUnits="userSpaceOnUse"
       y2="-.20294"
       id="linearGradient2245">
      <stop
         offset="0"
         stop-color="#fff"
         id="stop2241" />
      <stop
         offset="1"
         stop-opacity="0"
         stop-color="#fff"
         id="stop2243" />
    </linearGradient>
    <linearGradient
       x1="33.396"
       x2="34.17"
       y1="36.921"
       gradientUnits="userSpaceOnUse"
       y2="38.07"
       id="linearGradient2257">
      <stop
         offset="0"
         stop-color="#fff"
         id="stop2253" />
      <stop
         offset="1"
         stop-opacity="0"
         stop-color="#fff"
         id="stop2255" />
    </linearGradient>
    <linearGradient
       x1="26.076"
       x2="30.811"
       y1="26.697"
       gradientUnits="userSpaceOnUse"
       y2="42.007"
       id="linearGradient2265">
      <stop
         offset="0"
         stop-color="#fff"
         id="stop2261" />
      <stop
         offset="1"
         stop-opacity="0"
         stop-color="#fff"
         id="stop2263" />
    </linearGradient>
    <linearGradient
       y2="6.4811"
       x2="25.405"
       gradientTransform="matrix(0.53874,0,0,0.51181,10.801,-0.58264)"
       y1="3.818"
       gradientUnits="userSpaceOnUse"
       xlink:href="#linearGradient15234"
       x1="25.405"
       id="linearGradient2283" />
    <linearGradient
       y2="9.3234"
       x2="25.464"
       gradientTransform="matrix(1.0052,0,0,0.88393,-0.62792,0.84375)"
       y1="3.818"
       gradientUnits="userSpaceOnUse"
       xlink:href="#linearGradient15234"
       x1="25.405"
       id="linearGradient2287" />
    <rect
       height="8"
       width="8"
       id="p" />
    <clipPath
       clipPathUnits="userSpaceOnUse"
       id="clipPath4770">
      <use
         x="0"
         y="0"
         xlink:href="#g4766"
         id="use4772"
         width="100%"
         height="100%" />
    </clipPath>
    <clipPath
       clipPathUnits="userSpaceOnUse"
       id="clipPath5585">
      <rect
         style="fill:#800056;fill-opacity:0.3319838;stroke-width:0.27138653"
         id="rect5587"
         width="63.969688"
         height="63.969688"
         x="100.54653"
         y="154.89943" />
    </clipPath>
  </defs>
  <sodipodi:namedview
     id="base"
     pagecolor="#ffffff"
     bordercolor="#666666"
     borderopacity="1.0"
     inkscape:pageopacity="0.0"
     inkscape:pageshadow="2"
     inkscape:zoom="0.49497475"
     inkscape:cx="326.07574"
     inkscape:cy="148.01377"
     inkscape:document-units="mm"
     inkscape:current-layer="layer1"
     showgrid="false"
     inkscape:window-width="1915"
     inkscape:window-height="1011"
     inkscape:window-x="0"
     inkscape:window-y="38"
     inkscape:window-maximized="1" />
  <metadata
     id="metadata3716">
    <rdf:RDF>
      <cc:Work
         rdf:about="">
        <dc:format>image/svg+xml</dc:format>
        <dc:type
           rdf:resource="http://purl.org/dc/dcmitype/StillImage" />
        <dc:title />
      </cc:Work>
    </rdf:RDF>
  </metadata>
  <g
     inkscape:label="Ebene 1"
     inkscape:groupmode="layer"
     id="layer1"
     transform="translate(0,-97)">
    <rect
       id="rect3721"
       width="160"
       height="160"
       x="20"
       y="117"
       style="stroke-width:0.26458332;fill:#008000" />
    <g
       id="layer1-3"
       transform="matrix(2.6809991,0,0,3.1848251,21.321799,122.79842)">
      <g
         transform="matrix(0.023252,0,0,0.014857,44.806,43.06)"
         id="g5022">
        <rect
           x="-1559.3"
           y="-150.7"
           width="1339.6"
           height="478.35999"
           style="color:#000000;opacity:0.40206;fill:url(#linearGradient5027)"
           id="rect4173" />
        <path
           d="m -219.62,-150.68 v 478.33 c 142.88,0.9 345.4,-107.17 345.4,-239.2 0,-132.02 -159.44,-239.13 -345.4,-239.13 z"
           style="color:#000000;opacity:0.40206;fill:url(#radialGradient5029)"
           id="path5058"
           inkscape:connector-curvature="0" />
        <path
           d="m -1559.3,-150.68 v 478.33 c -142.8,0.9 -345.4,-107.17 -345.4,-239.2 0,-132.02 159.5,-239.13 345.4,-239.13 z"
           style="color:#000000;opacity:0.40206;fill:url(#radialGradient5031)"
           id="path5018"
           inkscape:connector-curvature="0" />
      </g>
      <rect
         x="4.4643002"
         y="4.5"
         width="39.035999"
         height="41.044998"
         ry="1.3879"
         rx="1.3879"
         id="rect12368"
         style="fill:url(#linearGradient14490);fill-rule:evenodd;stroke:#714c16" />
      <rect
         x="8.5323"
         y="6.5295"
         width="30.952"
         height="35.977001"
         ry="0.56651002"
         rx="0.56651002"
         id="rect12413"
         style="fill:url(#linearGradient15224);fill-rule:evenodd;stroke:#888a85" />
      <rect
         x="18"
         y="0"
         width="12"
         height="4"
         ry="0.98387998"
         rx="0.98387998"
         id="rect13756"
         style="fill:#5c5c5c;fill-rule:evenodd" />
      <rect
         x="9.5171003"
         y="7.4665999"
         width="29.014"
         height="34.041"
         ry="0"
         rx="0"
         id="rect15244"
         style="fill:none;stroke:url(#linearGradient2265)" />
      <rect
         x="5.4393001"
         y="5.4308"
         width="37.085999"
         height="39.092999"
         ry="0.4788"
         rx="0.4788"
         id="rect15974"
         style="fill:none;stroke:#c68827" />
      <rect
         x="14.791"
         y="4.4723001"
         width="18.947001"
         height="7"
         ry="1.3879"
         rx="1.3879"
         id="rect2208"
         style="opacity:0.10795001;fill-rule:evenodd;stroke:#000000" />
      <rect
         x="14.526"
         y="3.5"
         width="18.947001"
         height="7"
         ry="1.3879"
         rx="1.3879"
         id="rect2285"
         style="fill:url(#linearGradient15240);fill-rule:evenodd;stroke:#5c5c5c" />
      <rect
         x="19.150999"
         y="1.2086999"
         width="9.6974001"
         height="3.5826001"
         ry="0.32543999"
         rx="0.32543999"
         id="rect2281"
         style="fill:url(#linearGradient2283);fill-rule:evenodd" />
      <rect
         x="14.953"
         y="3.9375"
         width="18.094"
         height="6.1875"
         ry="1.0129"
         rx="1.0129"
         id="rect13754"
         style="fill:url(#linearGradient2287);fill-rule:evenodd" />
      <path
         d="m 39.018,36.25 0.044,5.812 -8.5,-0.044 z"
         style="color:#000000;opacity:0.48864004;fill:url(#linearGradient2222);fill-rule:evenodd"
         id="path2212"
         inkscape:connector-curvature="0" />
      <path
         d="m 30.059,42.087 c 1.791,0.168 8.99,-4.37 9.481,-8.388 -1.563,2.423 -4.955,1.968 -9.064,2.127 0,0 0.396,5.761 -0.417,6.261 z"
         style="color:#000000;fill:url(#linearGradient2230);fill-rule:evenodd;stroke:#868a84"
         id="path2210"
         inkscape:connector-curvature="0" />
      <path
         d="m 19.469,1.4688 c -0.002,0.002 10e-4,0.0287 0,0.0312 -0.001,0.0028 -0.031,-0.003 -0.031,0 v 2.875 c 0,0.0064 0.028,0.0257 0.031,0.0312 0.002,0.0017 -0.003,0.0301 0,0.0313 h -3.531 c -0.018,0 -0.046,-0.0017 -0.063,0 -0.034,0.0052 -0.094,0.0198 -0.125,0.0313 -0.138,0.0582 -0.268,0.199 -0.312,0.3437 -0.011,0.041 0,0.1118 0,0.1563 V 9.125 c 0,0.0178 -0.002,0.0452 0,0.0625 0.005,0.034 0.019,0.0935 0.031,0.125 0.009,0.023 0.018,0.0726 0.031,0.0937 0.005,0.0069 0.026,0.0247 0.031,0.0313 0.021,0.0253 0.069,0.0729 0.094,0.0937 0.013,0.0099 0.048,0.0228 0.063,0.0313 0.014,0.0079 0.047,0.0248 0.062,0.0313 0.031,0.0114 0.091,0.026 0.125,0.0312 0.017,0.0017 0.045,0 0.063,0 h 16.124 c 0.018,0 0.046,0.0017 0.063,0 C 32.159,9.6198 32.219,9.6052 32.25,9.5938 32.265,9.5873 32.298,9.5704 32.312,9.5625 32.327,9.554 32.362,9.5411 32.375,9.5312 32.4,9.5104 32.448,9.4628 32.469,9.4375 32.474,9.4309 32.495,9.4131 32.5,9.4062 c 0.013,-0.0211 0.022,-0.0707 0.031,-0.0937 0.012,-0.0315 0.026,-0.091 0.031,-0.125 0.002,-0.0173 0,-0.0447 0,-0.0625 V 4.9688 c 0,-0.0445 0.011,-0.1153 0,-0.1563 C 32.518,4.6678 32.388,4.527 32.25,4.4688 32.219,4.4573 32.159,4.4427 32.125,4.4375 c -0.017,-0.0017 -0.045,0 -0.063,0 h -3.531 c 0.003,-0.0012 -0.002,-0.0296 0,-0.0313 0.003,-0.0055 0.031,-0.0248 0.031,-0.0312 V 1.5 c 0,-0.003 -0.03,0.0028 -0.031,0 -10e-4,-0.0025 0.002,-0.0292 0,-0.0312 -0.003,-0.0012 -0.028,6e-4 -0.031,0 h -9 c -0.003,6e-4 -0.028,-0.0012 -0.031,0 z"
         id="rect2232"
         inkscape:connector-curvature="0"
         style="opacity:0.31682003;fill:none;stroke:url(#linearGradient2245)" />
      <path
         d="m 31.51,40.687 c 1.369,-0.684 4.529,-2.601 5.828,-4.482 -1.792,0.376 -2.991,0.59 -5.727,0.695 0,0 0.086,3.012 -0.101,3.787 z"
         style="color:#000000;opacity:0.36932002;fill:none;stroke:url(#linearGradient2257)"
         id="path2247"
         inkscape:connector-curvature="0" />
      <rect
         x="14"
         y="15"
         width="21"
         height="2"
         style="color:#000000;opacity:0.17045001;fill-rule:evenodd"
         id="rect2271" />
      <rect
         x="14"
         y="19"
         width="20"
         height="2"
         style="color:#000000;opacity:0.17045001;fill-rule:evenodd"
         id="rect2273" />
      <rect
         x="14"
         y="23"
         width="18"
         height="2"
         style="color:#000000;opacity:0.17045001;fill-rule:evenodd"
         id="rect2275" />
      <rect
         x="14"
         y="27"
         width="21"
         height="2"
         style="color:#000000;opacity:0.17045001;fill-rule:evenodd"
         id="rect2277" />
      <rect
         x="14"
         y="31"
         width="13"
         height="2"
         style="color:#000000;opacity:0.17045001;fill-rule:evenodd"
         id="rect2279" />
    </g>
    <g
       id="g5817">
      <g
         style="stroke:#000000;stroke-opacity:1"
         transform="matrix(1.3426014,0,0,1.3426014,-50.288294,-62.879538)"
         clip-path="url(#clipPath5585)"
         id="g4768">
        <g
           style="stroke:#000000;stroke-opacity:1"
           id="g4766"
           inkscape:label="Clip">
          <g
             style="stroke:#000000;stroke-opacity:1"
             id="g4538"
             transform="matrix(0.34930213,0,0,0.34930213,92.213865,145.95482)">
            <rect
               id="rect3853"
               height="232"
               width="232"
               y="0"
               x="0"
               style="fill:#ffffff;stroke:#000000;stroke-opacity:1" />
            <g
               id="g4302"
               style="fill:#000000;stroke:#000000;stroke-opacity:1">
              <use
                 style="stroke:#000000;stroke-opacity:1"
                 id="use3858"
                 y="32"
                 x="32"
                 xlink:href="#p"
                 width="100%"
                 height="100%" />
              <use
                 style="stroke:#000000;stroke-opacity:1"
                 id="use3860"
                 y="40"
                 x="32"
                 xlink:href="#p"
                 width="100%"
                 height="100%" />
              <use
                 style="stroke:#000000;stroke-opacity:1"
                 id="use3862"
                 y="48"
                 x="32"
                 xlink:href="#p"
                 width="100%"
                 height="100%" />
              <use
                 style="stroke:#000000;stroke-opacity:1"
                 id="use3864"
                 y="56"
                 x="32"
                 xlink:href="#p"
                 width="100%"
                 height="100%" />
              <use
                 style="stroke:#000000;stroke-opacity:1"
                 id="use3866"
                 y="64"
                 x="32"
                 xlink:href="#p"
                 width="100%"
                 height="100%" />
              <use
                 style="stroke:#000000;stroke-opacity:1"
                 id="use3868"
                 y="72"
                 x="32"
                 xlink:href="#p"
                 width="100%"
                 height="100%" />
              <use
                 style="stroke:#000000;stroke-opacity:1"
                 id="use3870"
                 y="80"
                 x="32"
                 xlink:href="#p"
                 width="100%"
                 height="100%" />
              <use
                 style="stroke:#000000;stroke-opacity:1"
                 id="use3872"
                 y="96"
                 x="32"
                 xlink:href="#p"
                 width="100%"
                 height="100%" />
              <use
                 style="stroke:#000000;stroke-opacity:1"
                 id="use3874"
                 y="104"
                 x="32"
                 xlink:href="#p"
                 width="100%"
                 height="100%" />
              <use
                 style="stroke:#000000;stroke-opacity:1"
                 id="use3876"
                 y="128"
                 x="32"
                 xlink:href="#p"
                 width="100%"
                 height="100%" />
              <use
                 style="stroke:#000000;stroke-opacity:1"
                 id="use3878"
                 y="144"
                 x="32"
                 xlink:href="#p"
                 width="100%"
                 height="100%" />
              <use
                 style="stroke:#000000;stroke-opacity:1"
                 id="use3880"
                 y="152"
                 x="32"
                 xlink:href="#p"
                 width="100%"
                 height="100%" />
              <use
                 style="stroke:#000000;stroke-opacity:1"
                 id="use3882"
                 y="160"
                 x="32"
                 xlink:href="#p"
                 width="100%"
                 height="100%" />
              <use
                 style="stroke:#000000;stroke-opacity:1"
                 id="use3884"
                 y="168"
                 x="32"
                 xlink:href="#p"
                 width="100%"
                 height="100%" />
              <use
                 style="stroke:#000000;stroke-opacity:1"
                 id="use3886"
                 y="176"
                 x="32"
                 xlink:href="#p"
                 width="100%"
                 height="100%" />
              <use
                 style="stroke:#000000;stroke-opacity:1"
                 id="use3888"
                 y="184"
                 x="32"
                 xlink:href="#p"
                 width="100%"
                 height="100%" />
              <use
                 style="stroke:#000000;stroke-opacity:1"
                 id="use3890"
                 y="192"
                 x="32"
                 xlink:href="#p"
                 width="100%"
                 height="100%" />
              <use
                 style="stroke:#000000;stroke-opacity:1"
                 id="use3892"
                 y="32"
                 x="40"
                 xlink:href="#p"
                 width="100%"
                 height="100%" />
              <use
                 style="stroke:#000000;stroke-opacity:1"
                 id="use3894"
                 y="80"
                 x="40"
                 xlink:href="#p"
                 width="100%"
                 height="100%" />
              <use
                 style="stroke:#000000;stroke-opacity:1"
                 id="use3896"
                 y="96"
                 x="40"
                 xlink:href="#p"
                 width="100%"
                 height="100%" />
              <use
                 style="stroke:#000000;stroke-opacity:1"
                 id="use3898"
                 y="120"
                 x="40"
                 xlink:href="#p"
                 width="100%"
                 height="100%" />
              <use
                 style="stroke:#000000;stroke-opacity:1"
                 id="use3900"
                 y="128"
                 x="40"
                 xlink:href="#p"
                 width="100%"
                 height="100%" />
              <use
                 style="stroke:#000000;stroke-opacity:1"
                 id="use3902"
                 y="144"
                 x="40"
                 xlink:href="#p"
                 width="100%"
                 height="100%" />
              <use
                 style="stroke:#000000;stroke-opacity:1"
                 id="use3904"
                 y="192"
                 x="40"
                 xlink:href="#p"
                 width="100%"
                 height="100%" />
              <use
                 style="stroke:#000000;stroke-opacity:1"
                 id="use3906"
                 y="32"
                 x="48"
                 xlink:href="#p"
                 width="100%"
                 height="100%" />
              <use
                 style="stroke:#000000;stroke-opacity:1"
                 id="use3908"
                 y="48"
                 x="48"
                 xlink:href="#p"
                 width="100%"
                 height="100%" />
              <use
                 style="stroke:#000000;stroke-opacity:1"
                 id="use3910"
                 y="56"
                 x="48"
                 xlink:href="#p"
                 width="100%"
                 height="100%" />
              <use
                 style="stroke:#000000;stroke-opacity:1"
                 id="use3912"
                 y="64"
                 x="48"
                 xlink:href="#p"
                 width="100%"
                 height="100%" />
              <use
                 style="stroke:#000000;stroke-opacity:1"
                 id="use3914"
                 y="80"
                 x="48"
                 xlink:href="#p"
                 width="100%"
                 height="100%" />
              <use
                 style="stroke:#000000;stroke-opacity:1"
                 id="use3916"
                 y="96"
                 x="48"
                 xlink:href="#p"
                 width="100%"
                 height="100%" />
              <use
                 style="stroke:#000000;stroke-opacity:1"
                 id="use3918"
                 y="112"
                 x="48"
                 xlink:href="#p"
                 width="100%"
                 height="100%" />
              <use
                 style="stroke:#000000;stroke-opacity:1"
                 id="use3920"
                 y="128"
                 x="48"
                 xlink:href="#p"
                 width="100%"
                 height="100%" />
              <use
                 style="stroke:#000000;stroke-opacity:1"
                 id="use3922"
                 y="144"
                 x="48"
                 xlink:href="#p"
                 width="100%"
                 height="100%" />
              <use
                 style="stroke:#000000;stroke-opacity:1"
                 id="use3924"
                 y="160"
                 x="48"
                 xlink:href="#p"
                 width="100%"
                 height="100%" />
              <use
                 style="stroke:#000000;stroke-opacity:1"
                 id="use3926"
                 y="168"
                 x="48"
                 xlink:href="#p"
                 width="100%"
                 height="100%" />
              <use
                 style="stroke:#000000;stroke-opacity:1"
                 id="use3928"
                 y="176"
                 x="48"
                 xlink:href="#p"
                 width="100%"
                 height="100%" />
              <use
                 style="stroke:#000000;stroke-opacity:1"
                 id="use3930"
                 y="192"
                 x="48"
                 xlink:href="#p"
                 width="100%"
                 height="100%" />
              <use
                 style="stroke:#000000;stroke-opacity:1"
                 id="use3932"
                 y="32"
                 x="56"
                 xlink:href="#p"
                 width="100%"
                 height="100%" />
              <use
                 style="stroke:#000000;stroke-opacity:1"
                 id="use3934"
                 y="48"
                 x="56"
                 xlink:href="#p"
                 width="100%"
                 height="100%" />
              <use
                 style="stroke:#000000;stroke-opacity:1"
                 id="use3936"
                 y="56"
                 x="56"
                 xlink:href="#p"
                 width="100%"
                 height="100%" />
              <use
                 style="stroke:#000000;stroke-opacity:1"
                 id="use3938"
                 y="64"
                 x="56"
                 xlink:href="#p"
                 width="100%"
                 height="100%" />
              <use
                 style="stroke:#000000;stroke-opacity:1"
                 id="use3940"
                 y="80"
                 x="56"
                 xlink:href="#p"
                 width="100%"
                 height="100%" />
              <use
                 style="stroke:#000000;stroke-opacity:1"
                 id="use3942"
                 y="96"
                 x="56"
                 xlink:href="#p"
                 width="100%"
                 height="100%" />
              <use
                 style="stroke:#000000;stroke-opacity:1"
                 id="use3944"
                 y="112"
                 x="56"
                 xlink:href="#p"
                 width="100%"
                 height="100%" />
              <use
                 style="stroke:#000000;stroke-opacity:1"
                 id="use3946"
                 y="144"
                 x="56"
                 xlink:href="#p"
                 width="100%"
                 height="100%" />
              <use
                 style="stroke:#000000;stroke-opacity:1"
                 id="use3948"
                 y="160"
                 x="56"
                 xlink:href="#p"
                 width="100%"
                 height="100%" />
              <use
                 style="stroke:#000000;stroke-opacity:1"
                 id="use3950"
                 y="168"
                 x="56"
                 xlink:href="#p"
                 width="100%"
                 height="100%" />
              <use
                 style="stroke:#000000;stroke-opacity:1"
                 id="use3952"
                 y="176"
                 x="56"
                 xlink:href="#p"
                 width="100%"
                 height="100%" />
              <use
                 style="stroke:#000000;stroke-opacity:1"
                 id="use3954"
                 y="192"
                 x="56"
                 xlink:href="#p"
                 width="100%"
                 height="100%" />
              <use
                 style="stroke:#000000;stroke-opacity:1"
                 id="use3956"
                 y="32"
                 x="64"
                 xlink:href="#p"
                 width="100%"
                 height="100%" />
              <use
                 style="stroke:#000000;stroke-opacity:1"
                 id="use3958"
                 y="48"
                 x="64"
                 xlink:href="#p"
                 width="100%"
                 height="100%" />
              <use
                 style="stroke:#000000;stroke-opacity:1"
                 id="use3960"
                 y="56"
                 x="64"
                 xlink:href="#p"
                 width="100%"
                 height="100%" />
              <use
                 style="stroke:#000000;stroke-opacity:1"
                 id="use3962"
                 y="64"
                 x="64"
                 xlink:href="#p"
                 width="100%"
                 height="100%" />
              <use
                 style="stroke:#000000;stroke-opacity:1"
                 id="use3964"
                 y="80"
                 x="64"
                 xlink:href="#p"
                 width="100%"
                 height="100%" />
              <use
                 style="stroke:#000000;stroke-opacity:1"
                 id="use3966"
                 y="96"
                 x="64"
                 xlink:href="#p"
                 width="100%"
                 height="100%" />
              <use
                 style="stroke:#000000;stroke-opacity:1"
                 id="use3968"
                 y="104"
                 x="64"
                 xlink:href="#p"
                 width="100%"
                 height="100%" />
              <use
                 style="stroke:#000000;stroke-opacity:1"
                 id="use3970"
                 y="128"
                 x="64"
                 xlink:href="#p"
                 width="100%"
                 height="100%" />
              <use
                 style="stroke:#000000;stroke-opacity:1"
                 id="use3972"
                 y="144"
                 x="64"
                 xlink:href="#p"
                 width="100%"
                 height="100%" />
              <use
                 style="stroke:#000000;stroke-opacity:1"
                 id="use3974"
                 y="160"
                 x="64"
                 xlink:href="#p"
                 width="100%"
                 height="100%" />
              <use
                 style="stroke:#000000;stroke-opacity:1"
                 id="use3976"
                 y="168"
                 x="64"
                 xlink:href="#p"
                 width="100%"
                 height="100%" />
              <use
                 style="stroke:#000000;stroke-opacity:1"
                 id="use3978"
                 y="176"
                 x="64"
                 xlink:href="#p"
                 width="100%"
                 height="100%" />
              <use
                 style="stroke:#000000;stroke-opacity:1"
                 id="use3980"
                 y="192"
                 x="64"
                 xlink:href="#p"
                 width="100%"
                 height="100%" />
              <use
                 style="stroke:#000000;stroke-opacity:1"
                 id="use3982"
                 y="32"
                 x="72"
                 xlink:href="#p"
                 width="100%"
                 height="100%" />
              <use
                 style="stroke:#000000;stroke-opacity:1"
                 id="use3984"
                 y="80"
                 x="72"
                 xlink:href="#p"
                 width="100%"
                 height="100%" />
              <use
                 style="stroke:#000000;stroke-opacity:1"
                 id="use3986"
                 y="104"
                 x="72"
                 xlink:href="#p"
                 width="100%"
                 height="100%" />
              <use
                 style="stroke:#000000;stroke-opacity:1"
                 id="use3988"
                 y="112"
                 x="72"
                 xlink:href="#p"
                 width="100%"
                 height="100%" />
              <use
                 style="stroke:#000000;stroke-opacity:1"
                 id="use3990"
                 y="128"
                 x="72"
                 xlink:href="#p"
                 width="100%"
                 height="100%" />
              <use
                 style="stroke:#000000;stroke-opacity:1"
                 id="use3992"
                 y="144"
                 x="72"
                 xlink:href="#p"
                 width="100%"
                 height="100%" />
              <use
                 style="stroke:#000000;stroke-opacity:1"
                 id="use3994"
                 y="192"
                 x="72"
                 xlink:href="#p"
                 width="100%"
                 height="100%" />
              <use
                 style="stroke:#000000;stroke-opacity:1"
                 id="use3996"
                 y="32"
                 x="80"
                 xlink:href="#p"
                 width="100%"
                 height="100%" />
              <use
                 style="stroke:#000000;stroke-opacity:1"
                 id="use3998"
                 y="40"
                 x="80"
                 xlink:href="#p"
                 width="100%"
                 height="100%" />
              <use
                 style="stroke:#000000;stroke-opacity:1"
                 id="use4000"
                 y="48"
                 x="80"
                 xlink:href="#p"
                 width="100%"
                 height="100%" />
              <use
                 style="stroke:#000000;stroke-opacity:1"
                 id="use4002"
                 y="56"
                 x="80"
                 xlink:href="#p"
                 width="100%"
                 height="100%" />
              <use
                 style="stroke:#000000;stroke-opacity:1"
                 id="use4004"
                 y="64"
                 x="80"
                 xlink:href="#p"
                 width="100%"
                 height="100%" />
              <use
                 style="stroke:#000000;stroke-opacity:1"
                 id="use4006"
                 y="72"
                 x="80"
                 xlink:href="#p"
                 width="100%"
                 height="100%" />
              <use
                 style="stroke:#000000;stroke-opacity:1"
                 id="use4008"
                 y="80"
                 x="80"
                 xlink:href="#p"
                 width="100%"
                 height="100%" />
              <use
                 style="stroke:#000000;stroke-opacity:1"
                 id="use4010"
                 y="96"
                 x="80"
                 xlink:href="#p"
                 width="100%"
                 height="100%" />
              <use
                 style="stroke:#000000;stroke-opacity:1"
                 id="use4012"
                 y="112"
                 x="80"
                 xlink:href="#p"
                 width="100%"
                 height="100%" />
              <use
                 style="stroke:#000000;stroke-opacity:1"
                 id="use4014"
                 y="128"
                 x="80"
                 xlink:href="#p"
                 width="100%"
                 height="100%" />
              <use
                 style="stroke:#000000;stroke-opacity:1"
                 id="use4016"
                 y="144"
                 x="80"
                 xlink:href="#p"
                 width="100%"
                 height="100%" />
              <use
                 style="stroke:#000000;stroke-opacity:1"
                 id="use4018"
                 y="152"
                 x="80"
                 xlink:href="#p"
                 width="100%"
                 height="100%" />
              <use
                 style="stroke:#000000;stroke-opacity:1"
                 id="use4020"
                 y="160"
                 x="80"
                 xlink:href="#p"
                 width="100%"
                 height="100%" />
              <use
                 style="stroke:#000000;stroke-opacity:1"
                 id="use4022"
                 y="168"
                 x="80"
                 xlink:href="#p"
                 width="100%"
                 height="100%" />
              <use
                 style="stroke:#000000;stroke-opacity:1"
                 id="use4024"
                 y="176"
                 x="80"
                 xlink:href="#p"
                 width="100%"
                 height="100%" />
              <use
                 style="stroke:#000000;stroke-opacity:1"
                 id="use4026"
                 y="184"
                 x="80"
                 xlink:href="#p"
                 width="100%"
                 height="100%" />
              <use
                 style="stroke:#000000;stroke-opacity:1"
                 id="use4028"
                 y="192"
                 x="80"
                 xlink:href="#p"
                 width="100%"
                 height="100%" />
              <use
                 style="stroke:#000000;stroke-opacity:1"
                 id="use4030"
                 y="96"
                 x="88"
                 xlink:href="#p"
                 width="100%"
                 height="100%" />
              <use
                 style="stroke:#000000;stroke-opacity:1"
                 id="use4032"
                 y="104"
                 x="88"
                 xlink:href="#p"
                 width="100%"
                 height="100%" />
              <use
                 style="stroke:#000000;stroke-opacity:1"
                 id="use4034"
                 y="112"
                 x="88"
                 xlink:href="#p"
                 width="100%"
                 height="100%" />
              <use
                 style="stroke:#000000;stroke-opacity:1"
                 id="use4036"
                 y="40"
                 x="96"
                 xlink:href="#p"
                 width="100%"
                 height="100%" />
              <use
                 style="stroke:#000000;stroke-opacity:1"
                 id="use4038"
                 y="56"
                 x="96"
                 xlink:href="#p"
                 width="100%"
                 height="100%" />
              <use
                 style="stroke:#000000;stroke-opacity:1"
                 id="use4040"
                 y="72"
                 x="96"
                 xlink:href="#p"
                 width="100%"
                 height="100%" />
              <use
                 style="stroke:#000000;stroke-opacity:1"
                 id="use4042"
                 y="80"
                 x="96"
                 xlink:href="#p"
                 width="100%"
                 height="100%" />
              <use
                 style="stroke:#000000;stroke-opacity:1"
                 id="use4044"
                 y="96"
                 x="96"
                 xlink:href="#p"
                 width="100%"
                 height="100%" />
              <use
                 style="stroke:#000000;stroke-opacity:1"
                 id="use4046"
                 y="128"
                 x="96"
                 xlink:href="#p"
                 width="100%"
                 height="100%" />
              <use
                 style="stroke:#000000;stroke-opacity:1"
                 id="use4048"
                 y="136"
                 x="96"
                 xlink:href="#p"
                 width="100%"
                 height="100%" />
              <use
                 style="stroke:#000000;stroke-opacity:1"
                 id="use4050"
                 y="144"
                 x="96"
                 xlink:href="#p"
                 width="100%"
                 height="100%" />
              <use
                 style="stroke:#000000;stroke-opacity:1"
                 id="use4052"
                 y="160"
                 x="96"
                 xlink:href="#p"
                 width="100%"
                 height="100%" />
              <use
                 style="stroke:#000000;stroke-opacity:1"
                 id="use4054"
                 y="168"
                 x="96"
                 xlink:href="#p"
                 width="100%"
                 height="100%" />
              <use
                 style="stroke:#000000;stroke-opacity:1"
                 id="use4056"
                 y="176"
                 x="96"
                 xlink:href="#p"
                 width="100%"
                 height="100%" />
              <use
                 style="stroke:#000000;stroke-opacity:1"
                 id="use4058"
                 y="184"
                 x="96"
                 xlink:href="#p"
                 width="100%"
                 height="100%" />
              <use
                 style="stroke:#000000;stroke-opacity:1"
                 id="use4060"
                 y="192"
                 x="96"
                 xlink:href="#p"
                 width="100%"
                 height="100%" />
              <use
                 style="stroke:#000000;stroke-opacity:1"
                 id="use4062"
                 y="32"
                 x="104"
                 xlink:href="#p"
                 width="100%"
                 height="100%" />
              <use
                 style="stroke:#000000;stroke-opacity:1"
                 id="use4064"
                 y="48"
                 x="104"
                 xlink:href="#p"
                 width="100%"
                 height="100%" />
              <use
                 style="stroke:#000000;stroke-opacity:1"
                 id="use4066"
                 y="72"
                 x="104"
                 xlink:href="#p"
                 width="100%"
                 height="100%" />
              <use
                 style="stroke:#000000;stroke-opacity:1"
                 id="use4068"
                 y="96"
                 x="104"
                 xlink:href="#p"
                 width="100%"
                 height="100%" />
              <use
                 style="stroke:#000000;stroke-opacity:1"
                 id="use4070"
                 y="104"
                 x="104"
                 xlink:href="#p"
                 width="100%"
                 height="100%" />
              <use
                 style="stroke:#000000;stroke-opacity:1"
                 id="use4072"
                 y="112"
                 x="104"
                 xlink:href="#p"
                 width="100%"
                 height="100%" />
              <use
                 style="stroke:#000000;stroke-opacity:1"
                 id="use4074"
                 y="128"
                 x="104"
                 xlink:href="#p"
                 width="100%"
                 height="100%" />
              <use
                 style="stroke:#000000;stroke-opacity:1"
                 id="use4076"
                 y="168"
                 x="104"
                 xlink:href="#p"
                 width="100%"
                 height="100%" />
              <use
                 style="stroke:#000000;stroke-opacity:1"
                 id="use4078"
                 y="176"
                 x="104"
                 xlink:href="#p"
                 width="100%"
                 height="100%" />
              <use
                 style="stroke:#000000;stroke-opacity:1"
                 id="use4080"
                 y="192"
                 x="104"
                 xlink:href="#p"
                 width="100%"
                 height="100%" />
              <use
                 style="stroke:#000000;stroke-opacity:1"
                 id="use4082"
                 y="64"
                 x="112"
                 xlink:href="#p"
                 width="100%"
                 height="100%" />
              <use
                 style="stroke:#000000;stroke-opacity:1"
                 id="use4084"
                 y="72"
                 x="112"
                 xlink:href="#p"
                 width="100%"
                 height="100%" />
              <use
                 style="stroke:#000000;stroke-opacity:1"
                 id="use4086"
                 y="80"
                 x="112"
                 xlink:href="#p"
                 width="100%"
                 height="100%" />
              <use
                 style="stroke:#000000;stroke-opacity:1"
                 id="use4088"
                 y="88"
                 x="112"
                 xlink:href="#p"
                 width="100%"
                 height="100%" />
              <use
                 style="stroke:#000000;stroke-opacity:1"
                 id="use4090"
                 y="120"
                 x="112"
                 xlink:href="#p"
                 width="100%"
                 height="100%" />
              <use
                 style="stroke:#000000;stroke-opacity:1"
                 id="use4092"
                 y="152"
                 x="112"
                 xlink:href="#p"
                 width="100%"
                 height="100%" />
              <use
                 style="stroke:#000000;stroke-opacity:1"
                 id="use4094"
                 y="160"
                 x="112"
                 xlink:href="#p"
                 width="100%"
                 height="100%" />
              <use
                 style="stroke:#000000;stroke-opacity:1"
                 id="use4096"
                 y="192"
                 x="112"
                 xlink:href="#p"
                 width="100%"
                 height="100%" />
              <use
                 style="stroke:#000000;stroke-opacity:1"
                 id="use4098"
                 y="40"
                 x="120"
                 xlink:href="#p"
                 width="100%"
                 height="100%" />
              <use
                 style="stroke:#000000;stroke-opacity:1"
                 id="use4100"
                 y="56"
                 x="120"
                 xlink:href="#p"
                 width="100%"
                 height="100%" />
              <use
                 style="stroke:#000000;stroke-opacity:1"
                 id="use4102"
                 y="64"
                 x="120"
                 xlink:href="#p"
                 width="100%"
                 height="100%" />
              <use
                 style="stroke:#000000;stroke-opacity:1"
                 id="use4104"
                 y="88"
                 x="120"
                 xlink:href="#p"
                 width="100%"
                 height="100%" />
              <use
                 style="stroke:#000000;stroke-opacity:1"
                 id="use4106"
                 y="112"
                 x="120"
                 xlink:href="#p"
                 width="100%"
                 height="100%" />
              <use
                 style="stroke:#000000;stroke-opacity:1"
                 id="use4108"
                 y="128"
                 x="120"
                 xlink:href="#p"
                 width="100%"
                 height="100%" />
              <use
                 style="stroke:#000000;stroke-opacity:1"
                 id="use4110"
                 y="136"
                 x="120"
                 xlink:href="#p"
                 width="100%"
                 height="100%" />
              <use
                 style="stroke:#000000;stroke-opacity:1"
                 id="use4112"
                 y="152"
                 x="120"
                 xlink:href="#p"
                 width="100%"
                 height="100%" />
              <use
                 style="stroke:#000000;stroke-opacity:1"
                 id="use4114"
                 y="176"
                 x="120"
                 xlink:href="#p"
                 width="100%"
                 height="100%" />
              <use
                 style="stroke:#000000;stroke-opacity:1"
                 id="use4116"
                 y="192"
                 x="120"
                 xlink:href="#p"
                 width="100%"
                 height="100%" />
              <use
                 style="stroke:#000000;stroke-opacity:1"
                 id="use4118"
                 y="32"
                 x="128"
                 xlink:href="#p"
                 width="100%"
                 height="100%" />
              <use
                 style="stroke:#000000;stroke-opacity:1"
                 id="use4120"
                 y="64"
                 x="128"
                 xlink:href="#p"
                 width="100%"
                 height="100%" />
              <use
                 style="stroke:#000000;stroke-opacity:1"
                 id="use4122"
                 y="72"
                 x="128"
                 xlink:href="#p"
                 width="100%"
                 height="100%" />
              <use
                 style="stroke:#000000;stroke-opacity:1"
                 id="use4124"
                 y="80"
                 x="128"
                 xlink:href="#p"
                 width="100%"
                 height="100%" />
              <use
                 style="stroke:#000000;stroke-opacity:1"
                 id="use4126"
                 y="88"
                 x="128"
                 xlink:href="#p"
                 width="100%"
                 height="100%" />
              <use
                 style="stroke:#000000;stroke-opacity:1"
                 id="use4128"
                 y="96"
                 x="128"
                 xlink:href="#p"
                 width="100%"
                 height="100%" />
              <use
                 style="stroke:#000000;stroke-opacity:1"
                 id="use4130"
                 y="104"
                 x="128"
                 xlink:href="#p"
                 width="100%"
                 height="100%" />
              <use
                 style="stroke:#000000;stroke-opacity:1"
                 id="use4132"
                 y="136"
                 x="128"
                 xlink:href="#p"
                 width="100%"
                 height="100%" />
              <use
                 style="stroke:#000000;stroke-opacity:1"
                 id="use4134"
                 y="144"
                 x="128"
                 xlink:href="#p"
                 width="100%"
                 height="100%" />
              <use
                 style="stroke:#000000;stroke-opacity:1"
                 id="use4136"
                 y="152"
                 x="128"
                 xlink:href="#p"
                 width="100%"
                 height="100%" />
              <use
                 style="stroke:#000000;stroke-opacity:1"
                 id="use4138"
                 y="160"
                 x="128"
                 xlink:href="#p"
                 width="100%"
                 height="100%" />
              <use
                 style="stroke:#000000;stroke-opacity:1"
                 id="use4140"
                 y="168"
                 x="128"
                 xlink:href="#p"
                 width="100%"
                 height="100%" />
              <use
                 style="stroke:#000000;stroke-opacity:1"
                 id="use4142"
                 y="96"
                 x="136"
                 xlink:href="#p"
                 width="100%"
                 height="100%" />
              <use
                 style="stroke:#000000;stroke-opacity:1"
                 id="use4144"
                 y="112"
                 x="136"
                 xlink:href="#p"
                 width="100%"
                 height="100%" />
              <use
                 style="stroke:#000000;stroke-opacity:1"
                 id="use4146"
                 y="128"
                 x="136"
                 xlink:href="#p"
                 width="100%"
                 height="100%" />
              <use
                 style="stroke:#000000;stroke-opacity:1"
                 id="use4148"
                 y="136"
                 x="136"
                 xlink:href="#p"
                 width="100%"
                 height="100%" />
              <use
                 style="stroke:#000000;stroke-opacity:1"
                 id="use4150"
                 y="152"
                 x="136"
                 xlink:href="#p"
                 width="100%"
                 height="100%" />
              <use
                 style="stroke:#000000;stroke-opacity:1"
                 id="use4152"
                 y="176"
                 x="136"
                 xlink:href="#p"
                 width="100%"
                 height="100%" />
              <use
                 style="stroke:#000000;stroke-opacity:1"
                 id="use4154"
                 y="192"
                 x="136"
                 xlink:href="#p"
                 width="100%"
                 height="100%" />
              <use
                 style="stroke:#000000;stroke-opacity:1"
                 id="use4156"
                 y="32"
                 x="144"
                 xlink:href="#p"
                 width="100%"
                 height="100%" />
              <use
                 style="stroke:#000000;stroke-opacity:1"
                 id="use4158"
                 y="40"
                 x="144"
                 xlink:href="#p"
                 width="100%"
                 height="100%" />
              <use
                 style="stroke:#000000;stroke-opacity:1"
                 id="use4160"
                 y="48"
                 x="144"
                 xlink:href="#p"
                 width="100%"
                 height="100%" />
              <use
                 style="stroke:#000000;stroke-opacity:1"
                 id="use4162"
                 y="56"
                 x="144"
                 xlink:href="#p"
                 width="100%"
                 height="100%" />
              <use
                 style="stroke:#000000;stroke-opacity:1"
                 id="use4164"
                 y="64"
                 x="144"
                 xlink:href="#p"
                 width="100%"
                 height="100%" />
              <use
                 style="stroke:#000000;stroke-opacity:1"
                 id="use4166"
                 y="72"
                 x="144"
                 xlink:href="#p"
                 width="100%"
                 height="100%" />
              <use
                 style="stroke:#000000;stroke-opacity:1"
                 id="use4168"
                 y="80"
                 x="144"
                 xlink:href="#p"
                 width="100%"
                 height="100%" />
              <use
                 style="stroke:#000000;stroke-opacity:1"
                 id="use4170"
                 y="136"
                 x="144"
                 xlink:href="#p"
                 width="100%"
                 height="100%" />
              <use
                 style="stroke:#000000;stroke-opacity:1"
                 id="use4172"
                 y="144"
                 x="144"
                 xlink:href="#p"
                 width="100%"
                 height="100%" />
              <use
                 style="stroke:#000000;stroke-opacity:1"
                 id="use4174"
                 y="152"
                 x="144"
                 xlink:href="#p"
                 width="100%"
                 height="100%" />
              <use
                 style="stroke:#000000;stroke-opacity:1"
                 id="use4176"
                 y="32"
                 x="152"
                 xlink:href="#p"
                 width="100%"
                 height="100%" />
              <use
                 style="stroke:#000000;stroke-opacity:1"
                 id="use4178"
                 y="80"
                 x="152"
                 xlink:href="#p"
                 width="100%"
                 height="100%" />
              <use
                 style="stroke:#000000;stroke-opacity:1"
                 id="use4180"
                 y="96"
                 x="152"
                 xlink:href="#p"
                 width="100%"
                 height="100%" />
              <use
                 style="stroke:#000000;stroke-opacity:1"
                 id="use4182"
                 y="104"
                 x="152"
                 xlink:href="#p"
                 width="100%"
                 height="100%" />
              <use
                 style="stroke:#000000;stroke-opacity:1"
                 id="use4184"
                 y="120"
                 x="152"
                 xlink:href="#p"
                 width="100%"
                 height="100%" />
              <use
                 style="stroke:#000000;stroke-opacity:1"
                 id="use4186"
                 y="144"
                 x="152"
                 xlink:href="#p"
                 width="100%"
                 height="100%" />
              <use
                 style="stroke:#000000;stroke-opacity:1"
                 id="use4188"
                 y="160"
                 x="152"
                 xlink:href="#p"
                 width="100%"
                 height="100%" />
              <use
                 style="stroke:#000000;stroke-opacity:1"
                 id="use4190"
                 y="168"
                 x="152"
                 xlink:href="#p"
                 width="100%"
                 height="100%" />
              <use
                 style="stroke:#000000;stroke-opacity:1"
                 id="use4192"
                 y="184"
                 x="152"
                 xlink:href="#p"
                 width="100%"
                 height="100%" />
              <use
                 style="stroke:#000000;stroke-opacity:1"
                 id="use4194"
                 y="32"
                 x="160"
                 xlink:href="#p"
                 width="100%"
                 height="100%" />
              <use
                 style="stroke:#000000;stroke-opacity:1"
                 id="use4196"
                 y="48"
                 x="160"
                 xlink:href="#p"
                 width="100%"
                 height="100%" />
              <use
                 style="stroke:#000000;stroke-opacity:1"
                 id="use4198"
                 y="56"
                 x="160"
                 xlink:href="#p"
                 width="100%"
                 height="100%" />
              <use
                 style="stroke:#000000;stroke-opacity:1"
                 id="use4200"
                 y="64"
                 x="160"
                 xlink:href="#p"
                 width="100%"
                 height="100%" />
              <use
                 style="stroke:#000000;stroke-opacity:1"
                 id="use4202"
                 y="80"
                 x="160"
                 xlink:href="#p"
                 width="100%"
                 height="100%" />
              <use
                 style="stroke:#000000;stroke-opacity:1"
                 id="use4204"
                 y="112"
                 x="160"
                 xlink:href="#p"
                 width="100%"
                 height="100%" />
              <use
                 style="stroke:#000000;stroke-opacity:1"
                 id="use4206"
                 y="120"
                 x="160"
                 xlink:href="#p"
                 width="100%"
                 height="100%" />
              <use
                 style="stroke:#000000;stroke-opacity:1"
                 id="use4208"
                 y="128"
                 x="160"
                 xlink:href="#p"
                 width="100%"
                 height="100%" />
              <use
                 style="stroke:#000000;stroke-opacity:1"
                 id="use4210"
                 y="176"
                 x="160"
                 xlink:href="#p"
                 width="100%"
                 height="100%" />
              <use
                 style="stroke:#000000;stroke-opacity:1"
                 id="use4212"
                 y="184"
                 x="160"
                 xlink:href="#p"
                 width="100%"
                 height="100%" />
              <use
                 style="stroke:#000000;stroke-opacity:1"
                 id="use4214"
                 y="192"
                 x="160"
                 xlink:href="#p"
                 width="100%"
                 height="100%" />
              <use
                 style="stroke:#000000;stroke-opacity:1"
                 id="use4216"
                 y="32"
                 x="168"
                 xlink:href="#p"
                 width="100%"
                 height="100%" />
              <use
                 style="stroke:#000000;stroke-opacity:1"
                 id="use4218"
                 y="48"
                 x="168"
                 xlink:href="#p"
                 width="100%"
                 height="100%" />
              <use
                 style="stroke:#000000;stroke-opacity:1"
                 id="use4220"
                 y="56"
                 x="168"
                 xlink:href="#p"
                 width="100%"
                 height="100%" />
              <use
                 style="stroke:#000000;stroke-opacity:1"
                 id="use4222"
                 y="64"
                 x="168"
                 xlink:href="#p"
                 width="100%"
                 height="100%" />
              <use
                 style="stroke:#000000;stroke-opacity:1"
                 id="use4224"
                 y="80"
                 x="168"
                 xlink:href="#p"
                 width="100%"
                 height="100%" />
              <use
                 style="stroke:#000000;stroke-opacity:1"
                 id="use4226"
                 y="96"
                 x="168"
                 xlink:href="#p"
                 width="100%"
                 height="100%" />
              <use
                 style="stroke:#000000;stroke-opacity:1"
                 id="use4228"
                 y="120"
                 x="168"
                 xlink:href="#p"
                 width="100%"
                 height="100%" />
              <use
                 style="stroke:#000000;stroke-opacity:1"
                 id="use4230"
                 y="128"
                 x="168"
                 xlink:href="#p"
                 width="100%"
                 height="100%" />
              <use
                 style="stroke:#000000;stroke-opacity:1"
                 id="use4232"
                 y="144"
                 x="168"
                 xlink:href="#p"
                 width="100%"
                 height="100%" />
              <use
                 style="stroke:#000000;stroke-opacity:1"
                 id="use4234"
                 y="152"
                 x="168"
                 xlink:href="#p"
                 width="100%"
                 height="100%" />
              <use
                 style="stroke:#000000;stroke-opacity:1"
                 id="use4236"
                 y="160"
                 x="168"
                 xlink:href="#p"
                 width="100%"
                 height="100%" />
              <use
                 style="stroke:#000000;stroke-opacity:1"
                 id="use4238"
                 y="32"
                 x="176"
                 xlink:href="#p"
                 width="100%"
                 height="100%" />
              <use
                 style="stroke:#000000;stroke-opacity:1"
                 id="use4240"
                 y="48"
                 x="176"
                 xlink:href="#p"
                 width="100%"
                 height="100%" />
              <use
                 style="stroke:#000000;stroke-opacity:1"
                 id="use4242"
                 y="56"
                 x="176"
                 xlink:href="#p"
                 width="100%"
                 height="100%" />
              <use
                 style="stroke:#000000;stroke-opacity:1"
                 id="use4244"
                 y="64"
                 x="176"
                 xlink:href="#p"
                 width="100%"
                 height="100%" />
              <use
                 style="stroke:#000000;stroke-opacity:1"
                 id="use4246"
                 y="80"
                 x="176"
                 xlink:href="#p"
                 width="100%"
                 height="100%" />
              <use
                 style="stroke:#000000;stroke-opacity:1"
                 id="use4248"
                 y="104"
                 x="176"
                 xlink:href="#p"
                 width="100%"
                 height="100%" />
              <use
                 style="stroke:#000000;stroke-opacity:1"
                 id="use4250"
                 y="120"
                 x="176"
                 xlink:href="#p"
                 width="100%"
                 height="100%" />
              <use
                 style="stroke:#000000;stroke-opacity:1"
                 id="use4252"
                 y="128"
                 x="176"
                 xlink:href="#p"
                 width="100%"
                 height="100%" />
              <use
                 style="stroke:#000000;stroke-opacity:1"
                 id="use4254"
                 y="136"
                 x="176"
                 xlink:href="#p"
                 width="100%"
                 height="100%" />
              <use
                 style="stroke:#000000;stroke-opacity:1"
                 id="use4256"
                 y="144"
                 x="176"
                 xlink:href="#p"
                 width="100%"
                 height="100%" />
              <use
                 style="stroke:#000000;stroke-opacity:1"
                 id="use4258"
                 y="152"
                 x="176"
                 xlink:href="#p"
                 width="100%"
                 height="100%" />
              <use
                 style="stroke:#000000;stroke-opacity:1"
                 id="use4260"
                 y="160"
                 x="176"
                 xlink:href="#p"
                 width="100%"
                 height="100%" />
              <use
                 style="stroke:#000000;stroke-opacity:1"
                 id="use4262"
                 y="168"
                 x="176"
                 xlink:href="#p"
                 width="100%"
                 height="100%" />
              <use
                 style="stroke:#000000;stroke-opacity:1"
                 id="use4264"
                 y="184"
                 x="176"
                 xlink:href="#p"
                 width="100%"
                 height="100%" />
              <use
                 style="stroke:#000000;stroke-opacity:1"
                 id="use4266"
                 y="192"
                 x="176"
                 xlink:href="#p"
                 width="100%"
                 height="100%" />
              <use
                 style="stroke:#000000;stroke-opacity:1"
                 id="use4268"
                 y="32"
                 x="184"
                 xlink:href="#p"
                 width="100%"
                 height="100%" />
              <use
                 style="stroke:#000000;stroke-opacity:1"
                 id="use4270"
                 y="80"
                 x="184"
                 xlink:href="#p"
                 width="100%"
                 height="100%" />
              <use
                 style="stroke:#000000;stroke-opacity:1"
                 id="use4272"
                 y="96"
                 x="184"
                 xlink:href="#p"
                 width="100%"
                 height="100%" />
              <use
                 style="stroke:#000000;stroke-opacity:1"
                 id="use4274"
                 y="104"
                 x="184"
                 xlink:href="#p"
                 width="100%"
                 height="100%" />
              <use
                 style="stroke:#000000;stroke-opacity:1"
                 id="use4276"
                 y="120"
                 x="184"
                 xlink:href="#p"
                 width="100%"
                 height="100%" />
              <use
                 style="stroke:#000000;stroke-opacity:1"
                 id="use4278"
                 y="144"
                 x="184"
                 xlink:href="#p"
                 width="100%"
                 height="100%" />
              <use
                 style="stroke:#000000;stroke-opacity:1"
                 id="use4280"
                 y="160"
                 x="184"
                 xlink:href="#p"
                 width="100%"
                 height="100%" />
              <use
                 style="stroke:#000000;stroke-opacity:1"
                 id="use4282"
                 y="192"
                 x="184"
                 xlink:href="#p"
                 width="100%"
                 height="100%" />
              <use
                 style="stroke:#000000;stroke-opacity:1"
                 id="use4284"
                 y="32"
                 x="192"
                 xlink:href="#p"
                 width="100%"
                 height="100%" />
              <use
                 style="stroke:#000000;stroke-opacity:1"
                 id="use4286"
                 y="40"
                 x="192"
                 xlink:href="#p"
                 width="100%"
                 height="100%" />
              <use
                 style="stroke:#000000;stroke-opacity:1"
                 id="use4288"
                 y="48"
                 x="192"
                 xlink:href="#p"
                 width="100%"
                 height="100%" />
              <use
                 style="stroke:#000000;stroke-opacity:1"
                 id="use4290"
                 y="56"
                 x="192"
                 xlink:href="#p"
                 width="100%"
                 height="100%" />
              <use
                 style="stroke:#000000;stroke-opacity:1"
                 id="use4292"
                 y="64"
                 x="192"
                 xlink:href="#p"
                 width="100%"
                 height="100%" />
              <use
                 style="stroke:#000000;stroke-opacity:1"
                 id="use4294"
                 y="72"
                 x="192"
                 xlink:href="#p"
                 width="100%"
                 height="100%" />
              <use
                 style="stroke:#000000;stroke-opacity:1"
                 id="use4296"
                 y="80"
                 x="192"
                 xlink:href="#p"
                 width="100%"
                 height="100%" />
              <use
                 style="stroke:#000000;stroke-opacity:1"
                 id="use4298"
                 y="104"
                 x="192"
                 xlink:href="#p"
                 width="100%"
                 height="100%" />
              <use
                 style="stroke:#000000;stroke-opacity:1"
                 id="use4300"
                 y="120"
                 x="192"
                 xlink:href="#p"
                 width="100%"
                 height="100%" />
            </g>
            <g
               style="stroke:#000000;stroke-opacity:1"
               id="g4304" />
          </g>
        </g>
      </g>
    </g>
    <rect
       style="fill:#ffff00;fill-opacity:0.87449396;stroke:#000000;stroke-width:1.86;stroke-opacity:1;stroke-miterlimit:4;stroke-dasharray:none"
       id="rect5900"
       width="90.34066"
       height="89.017754"
       x="82.169838"
       y="143.38829" />
    <path
       style="fill:#ff0000;fill-opacity:0.96761134;stroke:#000000;stroke-width:0.71428573;stroke-opacity:1"
       d="m 333.93892,242.82662 v -50 l 7.32143,-0.0284 c 9.41854,-0.0366 77.29216,-0.0362 86.42857,4.7e-4 l 6.96429,0.028 v 50 50 h -50.35715 -50.35714 z m 85,0 v -35 h -34.64286 -34.64285 v 35 35 h 34.64285 34.64286 z"
       id="path5820"
       inkscape:connector-curvature="0"
       transform="matrix(0.26458333,0,0,0.26458333,0,97)" />
    <path
       style="fill:#ff0000;fill-opacity:0.96761134;stroke:#000000;stroke-width:0.71428573;stroke-opacity:1"
       d="m 369.83178,264.40878 -7.32143,-0.20356 v -21.76073 -21.76073 h 21.78571 21.78572 v 21.78572 21.78571 l -7.32143,0.0456 c -4.02679,0.0251 -10.53572,0.10542 -14.46429,0.17857 -3.92857,0.0731 -10.4375,0.0414 -14.46428,-0.0706 z"
       id="path5822"
       inkscape:connector-curvature="0"
       transform="matrix(0.26458333,0,0,0.26458333,0,97)" />
    <path
       style="fill:#ff0000;fill-opacity:0.96761134;stroke:#000000;stroke-width:0.71428573;stroke-opacity:1"
       d="m 447.51035,455.32662 v -36.07143 h 7.5 7.5 v 7.14286 7.14286 h 6.84255 6.84254 l -0.12191,-6.96429 c -0.0671,-3.83036 -0.0926,-10.25893 -0.0568,-14.28571 l 0.0651,-7.32143 h 13.92857 13.92857 v -6.42857 -6.42857 h -7.14286 -7.14285 v -14.28572 -14.28571 h -6.42858 -6.42857 v 7.11699 7.11699 l -6.96428,0.20444 -6.96429,0.20443 -0.14279,6.78572 c -0.0785,3.73214 -0.15889,10.08036 -0.17857,14.10714 l -0.0358,7.32143 h -7.5 -7.5 v -21.78571 -21.78572 h 14.28571 14.28572 v -6.42857 -6.42857 h -7.14286 -7.14286 v -14.28572 -14.28571 h -6.41347 -6.41347 l -0.19367,14.10714 -0.19367,14.10715 -21.96429,0.18889 -21.96428,0.18889 v -7.15318 -7.15318 h -6.42858 -6.42857 v 7.14286 7.14286 h -14.31352 -14.31352 l 0.20638,6.25 0.20638,6.25 6.96428,0.20443 6.96429,0.20444 v 7.47414 7.47413 h -21.78572 -21.78571 v -7.5 -7.5 h 7.14286 7.14285 v -7.14286 -7.14285 h 7.14286 7.14286 v -7.14286 -7.14286 h 14.31352 14.31353 l -0.20639,-6.25 -0.20638,-6.25 -20.53571,-0.18953 -20.53571,-0.18952 v 7.15381 7.15381 h -7.85715 -7.85714 v -15 -15 h 36.07143 36.07143 v 7.14286 7.14286 h 6.42857 6.42857 v -7.14286 -7.14286 h 28.56897 28.56898 l -0.17612,-13.39285 -0.17612,-13.39286 h -6.42857 -6.42857 l -0.20443,6.96429 -0.20444,6.96428 h -7.47414 -7.47413 v -14.62776 -14.62775 l 14.10714,-0.19367 14.10714,-0.19368 0.20444,-6.96428 0.20444,-6.96429 h 6.75985 6.75985 v -7.14285 -7.14286 h 7.85714 7.85714 v 7.14286 7.14285 h 7.14286 7.14286 v 28.21429 28.21428 h 7.14285 7.14286 v 7.85715 7.85714 h -7.14286 -7.14285 v 6.42857 6.42857 h 7.14285 7.14286 v 7.85715 7.85714 h -7.85714 -7.85715 v -7.14286 -7.14286 h -6.42857 -6.42857 v 7.14286 7.14286 h -7.14286 -7.14285 v 6.42857 6.42857 h 7.14285 7.14286 v 7.14286 7.14286 h 6.42857 6.42857 v -7.14286 -7.14286 h 7.85715 7.85714 v 7.14286 7.14286 h 6.75985 6.75985 l 0.20444,6.96428 0.20443,6.96429 6.96429,0.20443 6.96428,0.20444 v 7.44827 7.44827 l -6.96428,0.20444 -6.96429,0.20443 -0.20638,6.25 -0.20638,6.25 h 7.17067 7.17066 v 14.28572 14.28571 h 7.14286 7.14286 v 21.78572 21.78571 h -7.5 -7.5 v -7.14286 -7.14285 h -7.14286 -7.14286 v -7.5 -7.5 h 7.16967 7.16965 l -0.20537,-6.60715 -0.20538,-6.60714 -6.96428,-0.20444 -6.96429,-0.20443 v -13.90271 -13.90271 h -13.57143 -13.57142 v 13.57143 13.57143 h 7.14285 7.14286 v 7.5 7.5 h -7.85714 -7.85715 v -7.17066 -7.17067 l -6.25,0.20638 -6.25,0.20638 -0.20443,6.96429 -0.20444,6.96428 h -7.83128 -7.83127 v -7.5 -7.5 h 7.14285 7.14286 v -13.57143 -13.57143 h -6.42857 -6.42857 v 7.14286 7.14286 h -7.14286 -7.14286 v 13.90271 13.9027 l -6.96428,0.20444 -6.96429,0.20443 v 6.42858 6.42857 l 13.92857,0.13811 c 7.66072,0.076 17.22322,0.15632 21.25,0.17857 l 7.32143,0.0405 v 7.5 7.5 h -28.92857 -28.92857 z m 85,-56.78571 v -6.42857 h -6.42857 -6.42857 v 6.42857 6.42857 h 6.42857 6.42857 z m -42.85714,-57.14286 v -7.14286 h 7.14285 7.14286 v -13.57143 -13.57142 h -13.57143 -13.57143 v 20.71428 20.71429 h 6.42857 6.42858 z m -56.42858,-13.57143 v -6.42857 h -6.42857 -6.42857 v 6.42857 6.42857 h 6.42857 6.42857 z m 70.71429,-49.67067 v -13.95638 l -6.25,0.20638 -6.25,0.20639 -0.19569,12.83313 c -0.10762,7.05822 -0.0374,13.24572 0.15616,13.75 0.24834,0.64716 2.14441,0.91687 6.44569,0.91687 h 6.09384 z"
       id="path5824"
       inkscape:connector-curvature="0"
       transform="matrix(0.26458333,0,0,0.26458333,0,97)" />
    <path
       style="fill:#ff0000;fill-opacity:0.96761134;stroke:#000000;stroke-width:0.71428573;stroke-opacity:1"
       d="m 391.08178,370.32662 v -7.5 h 21.78571 21.78572 v 7.5 7.5 h -21.78572 -21.78571 z"
       id="path5826"
       inkscape:connector-curvature="0"
       transform="matrix(0.26458333,0,0,0.26458333,0,97)" />
    <path
       style="fill:#ff0000;fill-opacity:0.96761134;stroke:#000000;stroke-width:0.71428573;stroke-opacity:1"
       d="m 333.93892,441.39805 v -50 l 6.60714,-0.0344 c 9.79379,-0.051 79.07275,-0.0574 87.14286,-0.008 l 6.96429,0.0425 v 50 50 h -50.35715 -50.35714 z m 85,-0.0415 v -34.95848 h -34.64286 -34.64285 v 34.97413 34.97413 l 34.64285,-0.0156 34.64286,-0.0156 v -34.95848 z"
       id="path5828"
       inkscape:connector-curvature="0"
       transform="matrix(0.26458333,0,0,0.26458333,0,97)" />
    <path
       style="fill:#ff0000;fill-opacity:0.96761134;stroke:#000000;stroke-width:0.71428573;stroke-opacity:1"
       d="m 362.51035,441.04091 v -21.78572 h 21.78571 21.78572 v 21.78572 21.78571 h -21.78572 -21.78571 z"
       id="path5830"
       inkscape:connector-curvature="0"
       transform="matrix(0.26458333,0,0,0.26458333,0,97)" />
    <path
       style="fill:#ff0000;fill-opacity:0.96761134;stroke:#000000;stroke-width:0.71428573;stroke-opacity:1"
       d="m 447.51035,242.82662 v -7.85714 h 7.14286 7.14285 v -6.42857 -6.42857 h -7.14285 -7.14286 v -7.85715 -7.85714 h 7.14286 7.14285 v -6.78571 -6.78572 h 7.5 7.5 v 7.5 7.5 h -7.14285 -7.14286 v 6.42857 6.42857 h 7.14286 7.14285 v 7.85715 7.85714 h -7.14285 -7.14286 v 7.14286 7.14285 h -7.5 -7.5 z"
       id="path5832"
       inkscape:connector-curvature="0"
       transform="matrix(0.26458333,0,0,0.26458333,0,97)" />
    <path
       style="fill:#ff0000;fill-opacity:0.96761134;stroke:#000000;stroke-width:0.71428573;stroke-opacity:1"
       d="m 489.65321,214.25519 v -7.85714 h 7.14285 7.14286 v -6.78571 -6.78572 h 7.85714 7.85715 v 7.5 7.5 h -7.14286 -7.14286 v 7.14286 7.14286 h -7.85714 -7.85714 z"
       id="path5834"
       inkscape:connector-curvature="0"
       transform="matrix(0.26458333,0,0,0.26458333,0,97)" />
    <path
       style="fill:#ff0000;fill-opacity:0.96761134;stroke:#000000;stroke-width:0.71428573;stroke-opacity:1"
       d="m 532.51035,242.82662 v -50 l 7.32143,-0.0284 c 9.41854,-0.0366 77.29216,-0.0362 86.42857,4.7e-4 l 6.96428,0.028 v 50 50 h -50.35714 -50.35714 z m 85,-0.007 v -35.0068 l -34.82143,0.18536 -34.82143,0.18536 -0.15663,33.92858 c -0.0861,18.66071 -0.0159,34.33035 0.15615,34.82142 0.24443,0.69773 7.88885,0.89286 34.97806,0.89286 h 34.66528 v -35.00679 z"
       id="path5836"
       inkscape:connector-curvature="0"
       transform="matrix(0.26458333,0,0,0.26458333,0,97)" />
    <path
       style="fill:#ff0000;fill-opacity:0.96761134;stroke:#000000;stroke-width:0.71428573;stroke-opacity:1"
       d="m 568.04606,264.4079 -6.96428,-0.20444 v -21.75985 -21.75985 h 21.78571 21.78572 v 21.78572 21.78571 l -6.96429,0.0373 c -3.83036,0.0205 -10.5,0.10088 -14.82143,0.17857 -4.32143,0.0777 -10.99107,0.0493 -14.82143,-0.0632 z"
       id="path5838"
       inkscape:connector-curvature="0"
       transform="matrix(0.26458333,0,0,0.26458333,0,97)" />
    <path
       style="fill:#ff0000;fill-opacity:0.96761134;stroke:#000000;stroke-width:0.71428573;stroke-opacity:1"
       d="m 550.21286,335.87062 c 2.07567,-0.14475 5.28996,-0.14322 7.14286,0.003 1.8529,0.1466 0.15463,0.26503 -3.77394,0.26317 -3.92857,-0.002 -5.44459,-0.12181 -3.36892,-0.26655 z"
       id="path5840"
       inkscape:connector-curvature="0"
       transform="matrix(0.26458333,0,0,0.26458333,0,97)" />
    <path
       style="fill:#ff0000;fill-opacity:0.96761134;stroke:#000000;stroke-width:0.71428573;stroke-opacity:1"
       d="m 588.93892,441.75519 v -6.78571 h -6.78571 -6.78572 l -0.0397,-7.14286 c -0.0218,-3.92857 -0.0397,-10.67857 -0.0397,-15 0,-4.32143 0.0178,-10.91071 0.0397,-14.64286 l 0.0397,-6.78571 h 6.78572 6.78571 v -6.78571 -6.78572 h -13.90271 -13.9027 l -0.20444,-6.96428 -0.20444,-6.96429 -6.96428,-0.20444 -6.96429,-0.20443 v -7.47414 -7.47413 h 7.14286 7.14286 v -6.47997 -6.47997 l -3.92421,0.4903 c -2.15831,0.26966 -5.3726,0.27309 -7.14286,0.008 l -3.21865,-0.48267 V 320.64 305.68376 h 7.5 7.5 v 14.28572 14.28571 h 7.14286 7.14286 v 7.14286 7.14286 h 28.57143 28.57142 v 7.5 7.5 l -7.32142,0.0651 c -4.02679,0.0358 -10.46239,0.01 -14.30134,-0.0573 l -6.97991,-0.12232 0.19419,13.80726 0.1942,13.80725 6.96428,0.20443 6.96429,0.20444 v 7.47413 7.47414 h -7.14286 -7.14285 v 6.42857 6.42857 h 7.14285 7.14286 v 7.85715 7.85714 h -7.14286 -7.14285 v 6.78571 6.78572 h -7.85715 -7.85714 z"
       id="path5842"
       inkscape:connector-curvature="0"
       transform="matrix(0.26458333,0,0,0.26458333,0,97)" />
    <path
       style="fill:#ff0000;fill-opacity:0.96761134;stroke:#000000;stroke-width:0.71428573;stroke-opacity:1"
       d="m 588.93892,328.54091 v -7.14286 h -6.78571 -6.78572 v -7.85714 -7.85715 h 7.5 7.5 v 7.14286 7.14286 h 6.42857 6.42857 v -7.14286 -7.14286 h 7.85715 7.85714 v 7.14286 7.14286 h 7.14286 7.14285 v 7.85714 7.85714 h -22.14285 -22.14286 z"
       id="path5844"
       inkscape:connector-curvature="0"
       transform="matrix(0.26458333,0,0,0.26458333,0,97)" />
    <path
       style="fill:#ff0000;fill-opacity:0.96761134;stroke:#000000;stroke-width:0.71428573;stroke-opacity:1"
       d="m 588.93892,476.75519 v -14.64285 h 7.85714 7.85715 v 7.14285 7.14286 h 7.14285 7.14286 v 7.5 7.5 h -15 -15 z"
       id="path5846"
       inkscape:connector-curvature="0"
       transform="matrix(0.26458333,0,0,0.26458333,0,97)" />
    <path
       style="fill:#ff1900;fill-opacity:1;stroke:#000000;stroke-width:0.71428573;stroke-opacity:1"
       d="m 518.22463,483.89805 v -7.5 h 7.85715 7.85714 v 7.5 7.5 h -7.85714 -7.85715 z"
       id="path5848"
       inkscape:connector-curvature="0"
       transform="matrix(0.26458333,0,0,0.26458333,0,97)" />
    <path
       style="fill:#ff1900;fill-opacity:1;stroke:#000000;stroke-width:0.71428573;stroke-opacity:1"
       d="M 334.48375,242.75066 V 193.1078 h 49.64286 49.64286 v 49.64286 49.64286 h -49.64286 -49.64286 z m 84.8281,0.17857 0.18524,-35.53571 h -35.36381 -35.36381 v 35.23809 c 0,19.38095 0.21731,35.45541 0.48291,35.72101 0.2656,0.2656 16.09596,0.39952 35.17857,0.29762 l 34.69566,-0.1853 z"
       id="path5850"
       inkscape:connector-curvature="0"
       transform="matrix(0.26458333,0,0,0.26458333,0,97)" />
    <path
       style="fill:#ff1900;fill-opacity:1;stroke:#000000;stroke-width:0.71428573;stroke-opacity:1"
       d="m 363.05518,242.75066 v -21.07143 h 21.07143 21.07143 v 21.07143 21.07143 h -21.07143 -21.07143 z"
       id="path5852"
       inkscape:connector-curvature="0"
       transform="matrix(0.26458333,0,0,0.26458333,0,97)" />
    <path
       style="fill:#ff1900;fill-opacity:1;stroke:#000000;stroke-width:0.71428573;stroke-opacity:1"
       d="m 405.19804,342.50689 v -7.25623 l -6.96429,0.001 -6.96428,10e-4 v -6.96527 -6.9653 l -21.25,-0.1892 -21.25,-0.1892 v 7.15348 7.15349 h -7.14286 -7.14286 v -14.28572 -14.28571 h 35.33128 35.33128 l 0.20444,6.96429 0.20443,6.96428 h 6.78572 6.78571 l 0.20444,-6.96428 0.20443,-6.96429 h 28.16793 28.16793 l 0.19906,21.42897 0.19907,21.42897 -6.96429,-4e-4 -6.96428,-4e-4 v -14.28571 -14.28572 h -7.14286 -7.14286 v 13.92858 13.92857 l -6.96428,0.002 c -3.83036,10e-4 -13.47322,0.21277 -21.42857,0.47052 l -14.46429,0.46866 z m 28.41872,-14.57766 0.20444,-6.96429 h -7.16872 -7.16873 v 6.66667 c 0,3.66667 0.2255,6.89216 0.5011,7.16776 0.27559,0.2756 3.40952,0.40952 6.96428,0.29762 l 6.4632,-0.20347 z"
       id="path5854"
       inkscape:connector-curvature="0"
       transform="matrix(0.26458333,0,0,0.26458333,0,97)" />
    <path
       style="fill:#ff1900;fill-opacity:1;stroke:#000000;stroke-width:0.71428573;stroke-opacity:1"
       d="m 362.92405,342.39507 0.22601,-7.14441 h 13.88113 13.88114 v 7.14286 7.14285 l -14.10715,0.002 -14.10714,0.002 0.22601,-7.14442 z"
       id="path5856"
       inkscape:connector-curvature="0"
       transform="matrix(0.26458333,0,0,0.26458333,0,97)" />
    <path
       style="fill:#ff1900;fill-opacity:1;stroke:#000000;stroke-width:0.71428573;stroke-opacity:1"
       d="m 334.48375,370.63367 v -6.75985 l 6.96429,-0.20444 6.96429,-0.20444 0.20443,-6.96428 0.20444,-6.96429 h 6.66036 6.66035 l 0.45043,3.75 c 0.24773,2.0625 0.45322,5.10401 0.45663,6.75891 l 0.006,3.00891 6.60715,0.20538 6.60714,0.20537 0.20444,6.96429 0.20443,6.96429 h -21.09729 -21.0973 z"
       id="path5858"
       inkscape:connector-curvature="0"
       transform="matrix(0.26458333,0,0,0.26458333,0,97)" />
    <path
       style="fill:#ff1900;fill-opacity:1;stroke:#000000;stroke-width:0.71428573;stroke-opacity:1"
       d="m 334.48375,441.32209 v -49.64286 h 49.64286 49.64286 v 49.64286 49.64285 h -49.64286 -49.64286 z m 85,0 v -35.35715 h -35.35714 -35.35714 v 35.35715 35.35714 h 35.35714 35.35714 z"
       id="path5860"
       inkscape:connector-curvature="0"
       transform="matrix(0.26458333,0,0,0.26458333,0,97)" />
    <path
       style="fill:#ff1900;fill-opacity:1;stroke:#000000;stroke-width:0.71428573;stroke-opacity:1"
       d="m 363.05518,440.96494 v -21.42857 h 21.07143 21.07143 v 21.42857 21.42858 h -21.07143 -21.07143 z"
       id="path5862"
       inkscape:connector-curvature="0"
       transform="matrix(0.26458333,0,0,0.26458333,0,97)" />
    <path
       style="fill:#ff1900;fill-opacity:1;stroke:#000000;stroke-width:0.71428573;stroke-opacity:1"
       d="m 391.62661,370.25066 v -7.14286 h 21.07143 21.07143 v 7.14286 7.14286 h -21.07143 -21.07143 z"
       id="path5864"
       inkscape:connector-curvature="0"
       transform="matrix(0.26458333,0,0,0.26458333,0,97)" />
    <path
       style="fill:#ff1900;fill-opacity:1;stroke:#000000;stroke-width:0.71428573;stroke-opacity:1"
       d="m 448.05518,384.89352 v -21.07143 h 13.92857 13.92858 v 6.78571 6.78572 h -6.78572 -6.78571 l -0.003,5.17857 c -0.002,2.84821 -0.21191,9.27678 -0.46737,14.28571 l -0.46445,9.10714 h -6.67548 -6.67549 z"
       id="path5866"
       inkscape:connector-curvature="0"
       transform="matrix(0.26458333,0,0,0.26458333,0,97)" />
    <path
       style="fill:#ff1900;fill-opacity:1;stroke:#000000;stroke-width:0.71428573;stroke-opacity:1"
       d="m 448.05518,455.6078 v -35.35714 h 6.75985 6.75985 l 0.20444,6.96428 0.20443,6.96429 6.96429,0.20444 6.96429,0.20443 v 13.90271 13.90271 h -6.78572 -6.78571 v 7.14285 7.14286 h 21.07143 21.07142 v 7.14286 7.14285 h -28.21428 -28.21429 z"
       id="path5868"
       inkscape:connector-curvature="0"
       transform="matrix(0.26458333,0,0,0.26458333,0,97)" />
    <path
       style="fill:#ff1900;fill-opacity:1;stroke:#000000;stroke-width:0.71428573;stroke-opacity:1"
       d="m 490.19804,455.63367 v -6.75985 l 6.96429,-0.20444 6.96428,-0.20444 0.19367,-14.10714 0.19367,-14.10714 h -7.15795 -7.15796 v 7.14286 7.14285 h -6.78571 -6.78572 v -14.27029 -14.27029 l 13.75,-0.19399 13.75,-0.194 0.20444,-6.96428 0.20444,-6.96429 h -7.16873 -7.16872 l -0.002,-14.10714 -0.002,-14.10715 7.11911,0.22547 7.11911,0.22547 0.20388,6.91739 0.20387,6.91739 h 6.78571 6.78572 l 0.20443,-6.96429 0.20444,-6.96428 h 7.09113 7.09112 l 0.20444,6.96428 0.20444,6.96429 6.51355,0.20414 6.51356,0.20413 0.45073,3.28842 c 0.2479,1.80862 0.45073,4.83863 0.45073,6.73334 v 3.44493 l 6.60714,0.20538 6.60714,0.20537 0.20444,6.96429 0.20443,6.96428 h -6.70462 -6.70461 l -0.46147,6.50106 c -0.2538,3.57558 -0.28296,6.78987 -0.0648,7.14286 0.22952,0.37139 -5.64002,0.6418 -13.93123,0.6418 h -14.32787 v 13.92857 13.92857 h -6.78572 -6.78571 l -0.006,3.39286 c -0.003,1.86607 -0.20891,5.08036 -0.45664,7.14286 l -0.45042,3.75 h -7.04337 -7.04336 z m 42.70444,-56.99015 0.20443,-6.96429 h -7.16872 -7.16872 v 6.66667 c 0,3.66666 0.22549,6.89215 0.50109,7.16775 0.2756,0.2756 3.40953,0.40953 6.96428,0.29762 l 6.4632,-0.20347 z"
       id="path5870"
       inkscape:connector-curvature="0"
       transform="matrix(0.26458333,0,0,0.26458333,0,97)" />
    <path
       style="fill:#ff1900;fill-opacity:1;stroke:#000000;stroke-width:0.71428573;stroke-opacity:1"
       d="m 490.91233,455.6078 v -6.07143 h 4.55357 c 2.50446,0 5.55803,-0.20089 6.78571,-0.44643 l 2.23214,-0.44642 -0.008,3.83928 c -0.004,2.11161 -0.20709,5.04464 -0.4506,6.51786 l -0.44274,2.67857 h -6.33511 -6.33511 z"
       id="path5872"
       inkscape:connector-curvature="0"
       transform="matrix(0.26458333,0,0,0.26458333,0,97)" />
    <path
       style="fill:#ff1900;fill-opacity:1;stroke:#000000;stroke-width:0.71428573;stroke-opacity:1"
       d="m 518.76947,455.6078 v -6.78571 h 7.14286 7.14285 v 6.78571 6.78572 h -7.14285 -7.14286 z"
       id="path5874"
       inkscape:connector-curvature="0"
       transform="matrix(0.26458333,0,0,0.26458333,0,97)" />
    <path
       style="fill:#ff1900;fill-opacity:1;stroke:#000000;stroke-width:0.71428573;stroke-opacity:1"
       d="m 521.80518,491.15138 c 2.25893,-0.14175 5.95536,-0.14175 8.21429,0 2.25893,0.14175 0.41071,0.25773 -4.10714,0.25773 -4.51786,0 -6.36608,-0.11598 -4.10715,-0.25773 z"
       id="path5876"
       inkscape:connector-curvature="0"
       transform="matrix(0.26458333,0,0,0.26458333,0,97)" />
    <path
       style="fill:#ff1900;fill-opacity:1;stroke:#000000;stroke-width:0.71428573;stroke-opacity:1"
       d="m 561.62661,483.82209 v -7.14286 h -7.14286 -7.14285 v -6.75985 -6.75985 l 6.96428,-0.20443 6.96429,-0.20444 0.20444,-6.96429 0.20443,-6.96428 h 6.75985 6.75985 v 21.07143 21.07142 h -6.78571 -6.78572 z"
       id="path5878"
       inkscape:connector-curvature="0"
       transform="matrix(0.26458333,0,0,0.26458333,0,97)" />
    <path
       style="fill:#ff1900;fill-opacity:1;stroke:#000000;stroke-width:0.71428573;stroke-opacity:1"
       d="m 589.48375,476.67923 v -14.28571 h 7.14286 7.14286 v 7.14285 7.14286 h 7.14286 7.14285 v 7.14286 7.14285 h -14.28571 -14.28572 z"
       id="path5880"
       inkscape:connector-curvature="0"
       transform="matrix(0.26458333,0,0,0.26458333,0,97)" />
    <path
       style="fill:#ff1900;fill-opacity:1;stroke:#000000;stroke-width:0.71428573;stroke-opacity:1"
       d="m 589.48375,441.32209 v -6.78572 h -6.78571 -6.78571 v -21.04462 -21.04463 l 6.60714,-0.20537 6.60714,-0.20538 0.20356,-7.32143 0.20356,-7.32142 h -13.92769 -13.9277 l -0.20443,-6.96429 -0.20444,-6.96429 -6.96429,-0.20443 -6.96428,-0.20444 v -6.73398 -6.73399 l 6.96428,-0.20443 6.96429,-0.20444 0.20444,-6.96429 0.20443,-6.96428 h 6.73399 6.73398 l 0.20444,6.96428 0.20443,6.96429 28.39286,0.18677 28.39286,0.18676 v 6.77752 6.77752 h -14.39427 -14.39426 l 0.46569,7.61112 c 0.25613,4.18611 0.46569,10.60262 0.46569,14.25891 v 6.64779 l 6.60715,0.20538 6.60714,0.20537 0.20444,6.96429 0.20443,6.96428 h -7.19458 -7.19459 l 0.20443,6.96429 0.20444,6.96429 6.96429,0.20443 6.96428,0.20444 v 7.11699 7.11699 h -7.14285 -7.14286 v 6.78572 6.78571 h -7.14286 -7.14286 z"
       id="path5882"
       inkscape:connector-curvature="0"
       transform="matrix(0.26458333,0,0,0.26458333,0,97)" />
    <path
       style="fill:#ff1900;fill-opacity:1;stroke:#000000;stroke-width:0.71428573;stroke-opacity:1"
       d="m 589.48375,328.1078 v -7.14286 h -6.78571 -6.78571 v -7.5 -7.5 h 6.78571 6.78571 v 7.14286 7.14286 h 7.14286 7.14286 v -7.14286 -7.14286 h 7.14286 7.14285 v 7.14286 7.14286 h 7.14286 7.14286 v 7.5 7.5 h -21.42857 -21.42858 z"
       id="path5884"
       inkscape:connector-curvature="0"
       transform="matrix(0.26458333,0,0,0.26458333,0,97)" />
    <path
       style="fill:#ff1900;fill-opacity:1;stroke:#000000;stroke-width:0.71428573;stroke-opacity:1"
       d="m 576.62661,313.46494 v -6.78571 h 6.07143 6.07143 v 6.78571 6.78572 h -6.07143 -6.07143 z"
       id="path5886"
       inkscape:connector-curvature="0"
       transform="matrix(0.26458333,0,0,0.26458333,0,97)" />
    <path
       style="fill:#ff1900;fill-opacity:1;stroke:#000000;stroke-width:0.71428573;stroke-opacity:1"
       d="m 550.01947,335.45836 -2.67857,-0.29394 v -14.24259 -14.2426 h 6.78571 6.78572 v 14.28571 14.28572 l -2.67858,0.01 c -1.47321,0.005 -3.32142,0.11823 -4.10714,0.25082 -0.78571,0.13259 -2.63393,0.1088 -4.10714,-0.0529 z"
       id="path5888"
       inkscape:connector-curvature="0"
       transform="matrix(0.26458333,0,0,0.26458333,0,97)" />
    <path
       style="fill:#ff1900;fill-opacity:1;stroke:#000000;stroke-width:0.71428573;stroke-opacity:1"
       d="m 561.62661,242.75066 v -21.07143 h 21.07143 21.07143 v 21.07143 21.07143 h -21.07143 -21.07143 z"
       id="path5890"
       inkscape:connector-curvature="0"
       transform="matrix(0.26458333,0,0,0.26458333,0,97)" />
    <path
       style="fill:#ff1900;fill-opacity:1;stroke:#000000;stroke-width:0.71428573;stroke-opacity:1"
       d="M 533.05518,242.75066 V 193.1078 h 49.64286 49.64286 v 49.64286 49.64286 h -49.64286 -49.64286 z m 84.8281,0.17857 0.18524,-35.53571 h -35.37054 -35.37054 l 0.1853,35.17857 0.1853,35.17857 17.14286,0.38261 c 9.42857,0.21045 25.17857,0.37116 35,0.35715 l 17.85714,-0.0255 0.18524,-35.53572 z"
       id="path5892"
       inkscape:connector-curvature="0"
       transform="matrix(0.26458333,0,0,0.26458333,0,97)" />
    <path
       style="fill:#ff1900;fill-opacity:1;stroke:#000000;stroke-width:0.71428573;stroke-opacity:1"
       d="m 490.19804,214.17923 v -7.5 h 7.14286 7.14285 v -6.78571 -6.78572 h 7.14286 7.14286 v 7.14286 7.14286 h -7.14286 -7.14286 v 7.14285 7.14286 h -7.14285 -7.14286 z"
       id="path5894"
       inkscape:connector-curvature="0"
       transform="matrix(0.26458333,0,0,0.26458333,0,97)" />
    <path
       style="fill:#ff1900;fill-opacity:1;stroke:#000000;stroke-width:0.71428573;stroke-opacity:1"
       d="m 476.62661,356.34889 v -6.75891 l 6.60714,-0.20537 6.60715,-0.20538 0.20413,-6.93873 0.20413,-6.93873 6.93872,-0.20413 6.93873,-0.20412 0.19367,-14.10715 0.19367,-14.10714 h -13.92857 -13.92857 l -0.19367,-14.10714 -0.19367,-14.10715 -6.96429,-0.20443 -6.96428,-0.20444 -0.006,3.41872 c -0.003,1.8803 -0.20889,5.10623 -0.45663,7.16873 l -0.45043,3.75 h -6.68622 -6.68622 v -13.84527 c 0,-13.75424 0.0106,-13.84809 1.60715,-14.27596 0.88392,-0.23688 7.3125,-0.43509 14.28571,-0.44045 l 12.67857,-0.01 v -6.75891 -6.75891 l 6.60714,-0.20538 6.60715,-0.20537 0.20443,-6.96429 0.20444,-6.96429 h 7.09113 7.09112 l 0.20444,6.96429 0.20444,6.96429 6.95602,0.20433 6.95601,0.20434 0.18685,28.00995 0.18683,28.00995 6.96429,0.20443 6.96428,0.20444 v 7.11699 7.11699 h -7.16872 -7.16872 l 0.20444,6.96429 0.20443,6.96429 6.96429,0.20443 6.96428,0.20444 v 7.11699 7.11699 h -7.14285 -7.14286 v -7.14285 -7.14286 h -7.14286 -7.14286 v 7.14286 7.14285 h -7.14285 -7.14286 v 6.78572 6.78571 h -6.78571 -6.78572 z m 27.69336,-78.06252 0.19336,-14.46428 h -6.8156 -6.8156 l 0.19367,14.10714 0.19367,14.10714 3.57143,0.43956 c 1.96428,0.24176 4.85714,0.40248 6.42857,0.35715 l 2.85714,-0.0824 z"
       id="path5896"
       inkscape:connector-curvature="0"
       transform="matrix(0.26458333,0,0,0.26458333,0,97)" />
    <path
       style="fill:#ff1900;fill-opacity:1;stroke:#000000;stroke-width:0.71428573;stroke-opacity:1"
       d="m 448.05518,242.75066 v -7.5 h 7.14286 7.14286 v -6.78572 -6.78571 h -7.14286 -7.14286 v -7.5 -7.5 h 7.14286 7.14286 v -6.78571 -6.78572 h 6.78571 6.78572 v 7.14286 7.14286 h -7.14286 -7.14286 v 6.78571 6.78571 h 7.14286 7.14286 v 7.5 7.5 h -7.14286 -7.14286 v 7.14286 7.14286 h -6.78571 -6.78572 z"
       id="path5898"
       inkscape:connector-curvature="0"
       transform="matrix(0.26458333,0,0,0.26458333,0,97)" />
    <text
       xml:space="preserve"
       style="font-style:normal;font-variant:normal;font-weight:normal;font-stretch:normal;font-size:16.55197525px;line-height:1.25;font-family:monospace;-inkscape-font-specification:monospace;letter-spacing:0px;word-spacing:0px;fill:#0066ff;fill-opacity:1;stroke:#000600;stroke-width:1.414;stroke-opacity:1;stroke-miterlimit:4;stroke-dasharray:none;"
       x="44.307888"
       y="268.25534"
       id="text1152"><tspan
         sodipodi:role="line"
         id="tspan1150"
         x="44.307888"
         y="268.25534"
         style="font-style:italic;font-variant:normal;font-weight:bold;font-stretch:normal;font-size:79.44948578px;font-family:Ubuntu;-inkscape-font-specification:'Ubuntu Bold Italic';fill:#0066ff;stroke-width:1.414;stroke:#000600;stroke-opacity:1;stroke-miterlimit:4;stroke-dasharray:none;">2</tspan></text>
    <flowRoot
       xml:space="preserve"
       id="flowRoot1154"
       style="fill:black;fill-opacity:1;stroke:none;font-family:sans-serif;font-style:normal;font-weight:normal;font-size:40px;line-height:1.25;letter-spacing:0px;word-spacing:0px"><flowRegion
         id="flowRegion1156"><rect
           id="rect1158"
           width="32.324883"
           height="141.42136"
           x="-592.95953"
           y="426.59579" /></flowRegion><flowPara
         id="flowPara1160"></flowPara></flowRoot>  </g>
</svg>
